<?xml version="1.0" standalone="no"?>
<!DOCTYPE svg PUBLIC "-//W3C//DTD SVG 1.1//EN" "http://www.w3.org/Graphics/SVG/1.1/DTD/svg11.dtd" >
<!--
2021-3-16: Created with FontForge (http://fontforge.org)
-->
<svg xmlns="http://www.w3.org/2000/svg" xmlns:xlink="http://www.w3.org/1999/xlink" version="1.1">
<metadata>
Created by FontForge 20170731 at Tue Mar 16 06:45:26 2021
 By root

</metadata>
<defs>
<font id="Flaticon" horiz-adv-x="512" >
  <font-face 
    font-family="Flaticon"
    font-weight="400"
    font-stretch="normal"
    units-per-em="512"
    panose-1="2 0 5 3 0 0 0 0 0 0"
    ascent="448"
    descent="-64"
    bbox="0 -64 529.655 448"
    underline-thickness="25.6"
    underline-position="-51.2"
    unicode-range="U+0020-F109"
  />
    <missing-glyph />
    <glyph glyph-name="space" unicode=" " horiz-adv-x="200" 
 />
    <glyph glyph-name="009-efficiency" unicode="&#xf108;" 
d="M476.98 92.7305c14.5391 3.66016 34.5039 -8.90234 34.5039 -29.3047c0 -9.87109 -5.05469 -20.7031 -16.1328 -26.3203c-3.70703 -1.87891 -8.23438 -0.398438 -10.1094 3.30859c-1.87891 3.70312 -0.398438 8.23047 3.30859 10.1094
c13.6016 6.89844 8.45312 27.5938 -6.75391 27.5938c-1.86719 0 8.39453 2.42969 -177.469 -44.3594c-4.83203 -24.9609 -35.7109 -34.0859 -53.6484 -16.207l-49.7578 49.7695c-2.9375 2.9375 -2.9375 7.70312 0 10.6406s7.70312 2.9375 10.6406 0l49.75 -49.7695
c3.1875 -3.17969 7.41797 -4.93359 11.9141 -4.93359c15.0625 0 22.3789 18.2539 11.5 29.1328l-55.2227 55.2227c-4.01172 4.01172 -9.33594 6.21875 -15.0117 6.21875h-109.949v-93.9805c60.625 -10.4688 48.6953 -7.15625 132.637 -48.2227
c14.3867 -7.04297 24.2969 -17.5 47.1133 -17.5c11.8516 0 23.4023 3.36328 33.4102 9.73047c0.484375 0.308594 143.496 72.7969 144.012 73.0586c3.70312 1.875 8.23047 0.394531 10.1094 -3.30859s0.398438 -8.23047 -3.30859 -10.1094l-143.055 -72.5352
c-12.3516 -7.77344 -26.5742 -11.8789 -41.168 -11.8789c-27.3711 0 -40.3086 12.4648 -53.7227 19.0312c-82.5547 40.3906 -70.6367 36.9062 -126.027 46.4727v-13.3125c0 -20.9492 -17.0391 -37.9883 -37.9883 -37.9883h-28.5703
c-20.9453 0 -37.9844 17.0391 -37.9844 37.9883v26.9062c0 4.14844 3.37109 7.51953 7.51953 7.51953c4.15234 0 7.52344 -3.37109 7.52344 -7.51953v-26.9062c0 -12.6562 10.2969 -22.9453 22.9414 -22.9453h28.5703c12.6484 0 22.9453 10.2891 22.9453 22.9453
c0 143.586 0.175781 134.59 -0.382812 137.594c-1.96484 10.6719 -11.3398 18.7812 -22.5625 18.7812h-28.5703c-12.6445 0 -22.9414 -10.2852 -22.9414 -22.9414v-76.4453c0 -4.15234 -3.37109 -7.51953 -7.52344 -7.51953c-4.14844 0 -7.51953 3.36719 -7.51953 7.51953
v76.4453c0 20.9492 17.0391 37.9844 37.9844 37.9844h28.5703c19.5469 0 35.6797 -14.832 37.7578 -33.8242h110.176c9.6875 0 18.793 -3.76953 25.6445 -10.6172l55.2344 -55.2344c4.00781 -4.00781 6.75391 -8.82812 8.24219 -13.9297zM476.98 92.7305zM26.7305 8.80469
c0 20.1914 18.7734 13.3945 15.5312 3.17969c-2.14453 -6.76562 2.92578 -13.6758 10.0078 -13.6758c11.3789 0 14.5586 15.6641 4.14062 20.1445c-3.8125 1.64453 -5.57812 6.06641 -3.93359 9.88281c1.64062 3.81641 6.0625 5.57812 9.87891 3.9375
c9.38672 -4.03516 15.4531 -13.25 15.4531 -23.4688c0 -14.082 -11.457 -25.5391 -25.5391 -25.5391s-25.5391 11.457 -25.5391 25.5391zM26.7305 8.80469zM501.918 263.102c7.95703 -2.89453 12.0469 -11.6758 9.15234 -19.6328l-12.3164 -33.8359
c-2.90234 -7.97266 -11.6875 -12.043 -19.6289 -9.15625l-36.2617 13.1992c-2.58203 -3.44922 -5.36328 -6.76172 -8.32031 -9.90625l19.2969 -33.4258c4.22266 -7.3125 1.71094 -16.6953 -5.60156 -20.918l-31.1875 -18.0078
c-7.31641 -4.22266 -16.6992 -1.70703 -20.9219 5.60938l-19.2852 33.4023c-4.19531 -0.980469 -8.45703 -1.72656 -12.7539 -2.23047l-6.69922 -38.0039c-1.47266 -8.35156 -9.46875 -13.8906 -17.7422 -12.4219l-35.4648 6.25
c-8.33594 1.47266 -13.8906 9.40625 -12.4219 17.7422l6.69922 37.9883c-3.84766 1.94922 -7.59375 4.11328 -11.207 6.48438l-29.5586 -24.8047c-6.46875 -5.42578 -16.1484 -4.57812 -21.5742 1.88672l-23.1484 27.5859c-5.42969 6.47266 -4.58203 16.1523 1.88672 21.582
l29.5469 24.7891c-1.70312 3.96875 -3.18359 8.03516 -4.42969 12.1719h-38.5703c-8.44531 0 -15.3125 6.87109 -15.3125 15.3164v36.0078c0 8.44531 6.86719 15.3164 15.3125 15.3164h38.5703c1.24609 4.13281 2.72656 8.20312 4.42969 12.1719l-29.5469 24.793
c-6.48438 5.44141 -7.32812 15.0938 -1.88672 21.5742l23.1484 27.5859c5.42969 6.47656 15.0781 7.34375 21.5742 1.89062l29.5586 -24.8047c3.61328 2.37109 7.35938 4.53516 11.207 6.48438l-6.69922 37.9883c-1.46875 8.31641 4.10547 16.2734 12.4219 17.7422
l35.4648 6.25c8.31641 1.46484 16.2734 -4.10547 17.7422 -12.4219l6.69922 -38.0039c4.29688 -0.503906 8.55859 -1.25 12.75 -2.23047l19.2891 33.4023c2.04297 3.54297 5.34766 6.07812 9.29688 7.13672c3.95312 1.0625 8.07812 0.515625 11.6211 -1.53125
l31.1875 -18.0039c7.3125 -4.22266 9.82812 -13.6094 5.60547 -20.9219l-19.2969 -33.4219c2.95703 -3.14844 5.73828 -6.45703 8.32031 -9.90625l36.2617 13.1992c7.93359 2.88672 16.7422 -1.22266 19.6289 -9.15625l12.3164 -33.8398
c2.89453 -7.95703 -1.19922 -16.7383 -9.15625 -19.6289l-36.2617 -13.1992c0.242188 -4.34375 0.242188 -8.61328 0 -12.9375zM496.938 248.617c0.0117188 0.0351562 0.0390625 0.105469 -0.0117188 0.207031c-0.046875 0.105469 -0.117188 0.128906 -0.152344 0.144531
l-41.6523 15.1562c-3.24609 1.18359 -5.26953 4.42969 -4.90234 7.86719c0.796875 7.46875 0.738281 14.6367 0 21.5547c-0.367188 3.4375 1.65625 6.68359 4.90234 7.86719l41.6523 15.1562c0.0351562 0.015625 0.105469 0.0390625 0.152344 0.144531
c0.0507812 0.101562 0.0234375 0.171875 0.0117188 0.207031l-12.3164 33.8398c-0.0546875 0.140625 -0.210938 0.210938 -0.351562 0.164062l-41.6445 -15.1562c-3.25 -1.17969 -6.88672 0 -8.81641 2.87109c-4 5.95703 -8.66406 11.5078 -13.8555 16.4961
c-2.49609 2.39844 -3.03516 6.1875 -1.30469 9.18359l22.168 38.3906c0.0742188 0.132812 0.0273438 0.300781 -0.101562 0.375l-31.1875 18.0039c-0.03125 0.0195312 -0.0976562 0.0585938 -0.207031 0.0273438c-0.109375 -0.0273438 -0.148438 -0.09375 -0.167969 -0.125
l-22.1484 -38.3711c-1.73047 -2.99219 -5.28125 -4.42188 -8.60547 -3.46094c-6.87109 1.98828 -14.0078 3.23828 -21.2148 3.71484c-3.45312 0.226562 -6.30859 2.78906 -6.91016 6.19922l-7.69531 43.6562c-0.0078125 0.0351562 -0.0195312 0.113281 -0.113281 0.175781
c-0.09375 0.0664062 -0.167969 0.0507812 -0.203125 0.046875l-35.4648 -6.25391c-0.148438 -0.0234375 -0.25 -0.167969 -0.222656 -0.316406l7.69531 -43.6328c0.597656 -3.40625 -1.20312 -6.78516 -4.36328 -8.18359
c-6.5625 -2.90234 -12.8359 -6.53125 -18.6445 -10.7852c-2.79297 -2.04688 -6.625 -1.92188 -9.27734 0.308594l-33.957 28.4922c-0.0273438 0.0234375 -0.0859375 0.0703125 -0.199219 0.0625c-0.113281 -0.0117188 -0.160156 -0.0703125 -0.1875 -0.0976562
l-23.1445 -27.5859c-0.0273438 -0.0273438 -0.0742188 -0.0859375 -0.0664062 -0.199219c0.0117188 -0.113281 0.0703125 -0.164062 0.0976562 -0.183594l33.9414 -28.4805c2.65625 -2.22656 3.44531 -5.97656 1.91406 -9.08594
c-3.17188 -6.44922 -5.65234 -13.2578 -7.36328 -20.2344c-0.828125 -3.36328 -3.83984 -5.72656 -7.30469 -5.72656h-44.3086c-0.152344 0 -0.273438 -0.125 -0.273438 -0.273438v-36.0117c0 -0.152344 0.121094 -0.273438 0.273438 -0.273438h44.3086
c3.46484 0 6.48047 -2.36328 7.30469 -5.72656c1.71094 -6.98047 4.19141 -13.7891 7.36328 -20.2383c1.53125 -3.10547 0.742188 -6.85547 -1.91406 -9.08203l-33.9414 -28.4805c-0.113281 -0.0976562 -0.128906 -0.269531 -0.03125 -0.386719l23.1484 -27.5859
c0.0976562 -0.113281 0.269531 -0.128906 0.382812 -0.03125l33.957 28.4922c2.64844 2.22266 6.47656 2.35547 9.27734 0.304688c5.80859 -4.25 12.082 -7.87891 18.6445 -10.7852c3.16016 -1.39844 4.96094 -4.77734 4.36328 -8.18359l-7.69531 -43.6328
c-0.0742188 -0.417969 35.2695 -6.49609 35.6836 -6.57031c0.152344 -0.0234375 0.292969 0.0742188 0.320312 0.222656l7.69531 43.6562c0.601562 3.41406 3.45703 5.97266 6.91016 6.19922c7.20312 0.476562 14.3398 1.72656 21.2148 3.71484
c3.32422 0.960938 6.875 -0.46875 8.60156 -3.46484l22.1523 -38.3672c0.078125 -0.128906 0.246094 -0.175781 0.375 -0.0976562l31.1875 18.0039c0.128906 0.0742188 0.175781 0.242188 0.0976562 0.375l-22.1641 38.3906
c-1.73047 2.99609 -1.19141 6.78516 1.30469 9.18359c5.19141 4.98438 9.85156 10.5352 13.8555 16.4961c1.92969 2.87109 5.56641 4.05469 8.81641 2.875l41.6445 -15.1602c0.0351562 -0.0117188 0.105469 -0.0390625 0.207031 0.0117188
c0.105469 0.046875 0.128906 0.117188 0.144531 0.152344zM496.938 248.617zM409.141 331.715c2.9375 2.9375 7.69922 2.9375 10.6367 0s2.9375 -7.69922 0 -10.6367l-85.3984 -85.3984c-5.41406 -5.41406 -14.1797 -5.41406 -19.5938 0l-36.4766 36.4766
c-2.9375 2.9375 -2.9375 7.69922 0 10.6367c2.9375 2.93359 7.69922 2.93359 10.6367 0l35.6367 -35.6367zM409.141 331.715z" />
    <glyph glyph-name="005-calendar" unicode="&#xf104;" 
d="M440 384c22.0801 0 40 -17.9199 40 -40v-208c0 -4.41602 -3.58398 -8 -8 -8s-8 3.58398 -8 8v136h-448v-248c0.0390625 -13.209 10.791 -23.9609 24 -24h224c4.41602 0 8 -3.58398 8 -8s-3.58398 -8 -8 -8h-224c-22.0801 0 -40 17.9199 -40 40v320
c0 22.0801 17.9199 40 40 40h40v16c0 17.6641 14.3359 32 32 32s32 -14.3359 32 -32v-16h64v16c0 17.6641 14.3359 32 32 32s32 -14.3359 32 -32v-16h64v16c0 17.6641 14.3359 32 32 32s32 -14.3359 32 -32v-16h40zM352 400v-48c0 -8.83203 7.16797 -16 16 -16
s16 7.16797 16 16v48c0 8.83203 -7.16797 16 -16 16s-16 -7.16797 -16 -16zM224 400v-48c0 -8.83203 7.16797 -16 16 -16s16 7.16797 16 16v48c0 8.83203 -7.16797 16 -16 16s-16 -7.16797 -16 -16zM96 400v-48c0 -8.83203 7.16797 -16 16 -16s16 7.16797 16 16v48
c0 8.83203 -7.16797 16 -16 16s-16 -7.16797 -16 -16zM464 288v56c-0.0390625 13.209 -10.791 23.9609 -24 24h-40v-16c0 -17.6641 -14.3359 -32 -32 -32s-32 14.3359 -32 32v16h-64v-16c0 -17.6641 -14.3359 -32 -32 -32s-32 14.3359 -32 32v16h-64v-16
c0 -17.6641 -14.3359 -32 -32 -32s-32 14.3359 -32 32v16h-40c-13.209 -0.0390625 -23.9609 -10.791 -24 -24v-56h448zM224 216v-24c0 -8.83203 -7.16797 -16 -16 -16h-32c-8.83203 0 -16 7.16797 -16 16v24c0 8.83203 7.16797 16 16 16h32c8.83203 0 16 -7.16797 16 -16z
M176 192h32v24h-32v-24zM128 216v-24c0 -8.83203 -7.16797 -16 -16 -16h-32c-8.83203 0 -16 7.16797 -16 16v24c0 8.83203 7.16797 16 16 16h32c8.83203 0 16 -7.16797 16 -16zM80 192h32v24h-32v-24zM400 176h-32c-8.83203 0 -16 7.16797 -16 16v24
c0 8.83203 7.16797 16 16 16h32c8.83203 0 16 -7.16797 16 -16v-24c0 -8.83203 -7.16797 -16 -16 -16zM368 216v-24h32v24h-32zM224 144v-24c0 -8.83203 -7.16797 -16 -16 -16h-32c-8.83203 0 -16 7.16797 -16 16v24c0 8.83203 7.16797 16 16 16h32
c8.83203 0 16 -7.16797 16 -16zM176 120h32v24h-32v-24zM128 144v-24c0 -8.83203 -7.16797 -16 -16 -16h-32c-8.83203 0 -16 7.16797 -16 16v24c0 8.83203 7.16797 16 16 16h32c8.83203 0 16 -7.16797 16 -16zM80 120h32v24h-32v-24zM208 88c8.83203 0 16 -7.16797 16 -16
v-24c0 -8.83203 -7.16797 -16 -16 -16h-32c-8.83203 0 -16 7.16797 -16 16v24c0 8.83203 7.16797 16 16 16h32zM176 48h32v24h-32v-24zM272 176c-8.83203 0 -16 7.16797 -16 16v24c0 8.83203 7.16797 16 16 16h32c8.83203 0 16 -7.16797 16 -16v-24
c0 -8.83203 -7.16797 -16 -16 -16h-32zM272 216v-24h32v24h-32zM256 120v24c0 8.83203 7.16797 16 16 16h32c4.41602 0 8 -3.58398 8 -8s-3.58398 -8 -8 -8h-32v-24c4.41602 0 8 -3.58398 8 -8s-3.58398 -8 -8 -8c-8.83203 0 -16 7.16797 -16 16zM112 88
c8.83203 0 16 -7.16797 16 -16v-24c0 -8.83203 -7.16797 -16 -16 -16h-32c-8.83203 0 -16 7.16797 -16 16v24c0 8.83203 7.16797 16 16 16h32zM80 48h32v24h-32v-24zM376 160c57.3418 -0.0664062 103.934 -46.6582 104 -104c0 -57.4082 -46.5918 -104 -104 -104
s-104 46.5918 -104 104s46.5918 104 104 104zM376 -32c48.5186 0.0576172 87.9424 39.4814 88 88c0 48.5762 -39.4238 88 -88 88s-88 -39.4238 -88 -88s39.4238 -88 88 -88zM422.224 89.5361c1.28418 1.23926 3.77344 2.24512 5.55762 2.24512c4.41602 0 8 -3.58398 8 -8
c0 -1.78418 -1.00586 -4.27344 -2.24512 -5.55762l-67.8799 -67.8799c-1.29395 -1.29297 -3.82715 -2.3418 -5.65625 -2.3418s-4.3623 1.04883 -5.65625 2.3418l-33.9355 33.9443c-1.24023 1.2832 -2.24609 3.77344 -2.24609 5.55762c0 4.41602 3.58398 8 8 8
c1.78418 0 4.27441 -1.00586 5.55762 -2.24609l28.2803 -28.2881z" />
    <glyph glyph-name="010-settings" unicode="&#xf109;" 
d="M207.118 90.1279c-1.09082 0.547852 -2.39941 0.34082 -3.25391 -0.514648l-7.8623 -7.86133c-6.94531 -6.94629 -18.2441 -6.94434 -25.1885 0l-20.542 20.542c-6.94434 6.94531 -6.94434 18.2451 -0.00195312 25.1895l7.86133 7.86133
c0.858398 0.857422 1.06543 2.16504 0.516602 3.25586c-2.37012 4.71094 -4.40918 9.63184 -6.0625 14.6221c-0.379883 1.14941 -1.4502 1.9209 -2.66113 1.9209h-11.1104c-9.82227 0 -17.8125 7.99121 -17.8125 17.8125v29.0518c0 9.82227 7.99121 17.8125 17.8125 17.8125
h11.1104c1.21094 0 2.28125 0.771484 2.66113 1.9209c1.6543 4.99121 3.69336 9.91016 6.0625 14.6211c0.547852 1.0918 0.34082 2.39941 -0.515625 3.25586l-7.8623 7.8623c-6.94238 6.94336 -6.94238 18.2432 0 25.1885l20.5439 20.543
c6.94336 6.94336 18.2441 6.94434 25.1885 0l7.8623 -7.8623c0.856445 -0.856445 2.16699 -1.0625 3.25586 -0.515625c4.70703 2.36914 9.62598 4.4082 14.6221 6.0625c1.14844 0.380859 1.9209 1.4502 1.9209 2.66113v11.1113c0 9.82227 7.99121 17.8125 17.8125 17.8125
h29.0527c9.82129 0 17.8115 -7.99023 17.8115 -17.8125v-11.1113c0 -1.21191 0.773438 -2.28027 1.9209 -2.66113c4.99609 -1.6543 9.91504 -3.69336 14.623 -6.0625c1.09082 -0.546875 2.39941 -0.339844 3.25488 0.515625l7.8623 7.86133
c6.94434 6.94629 18.2432 6.94531 25.1895 0l20.542 -20.542c6.94336 -6.94531 6.94336 -18.2451 0.000976562 -25.1885l-7.86133 -7.8623c-0.858398 -0.858398 -1.06543 -2.16504 -0.516602 -3.25488c2.37012 -4.71289 4.40918 -9.63281 6.0625 -14.624
c0.379883 -1.14941 1.4502 -1.9209 2.66113 -1.9209h11.1113c9.82129 0 17.8115 -7.99121 17.8115 -17.8125v-29.0518c0 -9.82227 -7.99121 -17.8125 -17.8115 -17.8125h-11.1113c-1.21094 0 -2.28125 -0.771484 -2.66113 -1.9209
c-1.6543 -4.99219 -3.69336 -9.91113 -6.06152 -14.6211c-0.548828 -1.09082 -0.341797 -2.39844 0.514648 -3.25586l7.8623 -7.86133c6.94238 -6.94434 6.94238 -18.2441 0 -25.1895l-20.543 -20.542c-3.36621 -3.36426 -7.83887 -5.2168 -12.5967 -5.2168
s-9.23145 1.85254 -12.5947 5.21777l-7.86035 7.86035c-0.858398 0.856445 -2.16797 1.0625 -3.25684 0.515625c-4.70703 -2.36914 -9.62598 -4.4082 -14.6221 -6.06152c-1.14844 -0.381836 -1.9209 -1.45117 -1.9209 -2.66211v-11.1113
c0 -9.82227 -7.99121 -17.8115 -17.8125 -17.8115h-29.0527c-9.82129 0 -17.8115 7.98926 -17.8115 17.8115v11.1113c0 1.21191 -0.773438 2.28027 -1.9209 2.66211c-4.99609 1.65332 -9.91504 3.69238 -14.623 6.06152zM193.257 100.218
c3.42188 3.42285 7.9668 5.21875 12.583 5.21777c2.72168 0 5.4668 -0.624023 8.02148 -1.9082c4.05566 -2.04102 8.29395 -3.79883 12.5967 -5.22363c7.30078 -2.41797 12.2061 -9.20996 12.2061 -16.9004v-11.1113c0 -1.55078 1.26172 -2.81152 2.81152 -2.81152h29.0527
c1.55078 0 2.8125 1.26074 2.8125 2.81152v11.1113c0 7.69141 4.90527 14.4834 12.2061 16.9004c4.30273 1.4248 8.54102 3.18164 12.5957 5.22266c6.88086 3.46191 15.1621 2.13184 20.6045 -3.30957l7.86133 -7.86035
c0.716797 -0.717773 1.55273 -0.824219 1.9873 -0.824219c0.435547 0 1.27148 0.106445 1.98828 0.824219l20.543 20.542c1.09668 1.09668 1.09668 2.88086 0 3.97656l-7.86133 7.86133c-5.44238 5.44043 -6.77148 13.7207 -3.30762 20.6035
c2.04004 4.05762 3.79688 8.2959 5.2207 12.5947c2.41797 7.30176 9.20996 12.2061 16.9014 12.2061h11.1113c1.5498 0 2.81152 1.26172 2.81152 2.8125v29.0518c0 1.55078 -1.26172 2.8125 -2.81152 2.8125h-11.1113c-7.69141 0 -14.4834 4.90527 -16.9014 12.207
c-1.42285 4.29883 -3.18066 8.53613 -5.22168 12.5967c-3.46191 6.88086 -2.13281 15.1611 3.30957 20.6025l7.86035 7.86133c1.09668 1.0957 1.09668 2.87988 0 3.97656l-20.542 20.542c-1.09668 1.0957 -2.87988 1.09766 -3.97656 0l-7.8623 -7.86035
c-5.44238 -5.44336 -13.7207 -6.77246 -20.6035 -3.31055c-4.05566 2.04102 -8.29395 3.79883 -12.5967 5.22363c-7.30078 2.41797 -12.2061 9.20996 -12.2061 16.9004v11.1113c0 1.55078 -1.26172 2.8125 -2.81152 2.8125h-29.0527
c-1.55078 0 -2.8125 -1.26172 -2.8125 -2.8125v-11.1113c0 -7.69141 -4.90527 -14.4834 -12.2061 -16.9004c-4.30273 -1.4248 -8.54102 -3.18164 -12.5957 -5.22266c-6.88086 -3.46191 -15.1621 -2.13184 -20.6045 3.30957l-7.8623 7.8623
c-1.09668 1.09668 -2.87988 1.0957 -3.97656 0l-20.542 -20.542c-1.09668 -1.09766 -1.09668 -2.88184 0 -3.97754l7.86133 -7.86133c5.44238 -5.44043 6.77148 -13.7217 3.30762 -20.6035c-2.04004 -4.05664 -3.79785 -8.2959 -5.2207 -12.5947
c-2.41797 -7.30176 -9.20996 -12.2061 -16.9014 -12.2061h-11.1113c-1.5498 0 -2.81152 -1.26172 -2.81152 -2.8125v-29.0518c0 -1.55078 1.26172 -2.8125 2.81152 -2.8125h11.1113c7.69141 0 14.4834 -4.90527 16.9014 -12.207
c1.42285 -4.29883 3.18066 -8.53613 5.22168 -12.5967c3.46094 -6.88184 2.13086 -15.1621 -3.30957 -20.6025l-7.86035 -7.86133c-1.09668 -1.0957 -1.09668 -2.87988 0 -3.97656l20.542 -20.542c1.09668 -1.0957 2.87988 -1.09668 3.97656 0zM256.433 117.744
c-38.6914 0 -70.1709 31.4766 -70.1709 70.168c0 38.6904 31.4795 70.1689 70.1699 70.1689c12.8652 0 25.4492 -3.51367 36.3916 -10.1631c3.54004 -2.15137 4.66602 -6.76367 2.51465 -10.3037c-2.15137 -3.53906 -6.76562 -4.66504 -10.3037 -2.51562
c-8.59473 5.22266 -18.4863 7.98242 -28.6025 7.98242c-30.4209 0 -55.1699 -24.749 -55.1699 -55.1689s24.749 -55.1689 55.1699 -55.1689c30.4199 0 55.1689 24.749 55.1689 55.1689c0 8.74609 -1.9834 17.1064 -5.89648 24.8496
c-1.86914 3.69727 -0.385742 8.20801 3.31055 10.0771c3.69434 1.86719 8.20703 0.385742 10.0762 -3.31055c4.98438 -9.86035 7.51074 -20.4971 7.51074 -31.6152c0 -38.6914 -31.4775 -70.1689 -70.1689 -70.1689zM256.433 227.829
c22.0088 0 39.915 -17.9072 39.915 -39.916s-17.9053 -39.915 -39.915 -39.915s-39.916 17.9053 -39.916 39.915s17.9062 39.916 39.916 39.916zM256.433 162.999c13.7383 0 24.915 11.1758 24.915 24.915s-11.1768 24.916 -24.915 24.916
c-13.7373 0 -24.916 -11.1777 -24.916 -24.916s11.1787 -24.915 24.916 -24.915zM480.681 208.714c17.7334 -2.96484 31.3193 -18.4492 31.3193 -36.9824v-60c0 -18.5312 -13.5859 -34.0176 -31.3193 -36.9814c-2.40332 -5.4502 -7.85156 -9.26758 -14.1807 -9.26758
h-3.76465c-1.78516 -25.1523 -12.5986 -48.5615 -30.7832 -66.3945c-19.4688 -19.0908 -45.1719 -29.6055 -72.375 -29.6055h-37.29c-2.81543 -5.90234 -8.82422 -10 -15.7871 -10h-71c-17.9209 0 -32.5 14.5791 -32.5 32.5c0 17.9199 14.5791 32.5 32.5 32.5h71
c6.96289 0 12.9707 -4.09863 15.7871 -10h37.29c10.9541 0 21.6367 3.0625 30.8955 8.85645c3.50977 2.19727 8.13965 1.13281 10.3359 -2.37793c2.19727 -3.51074 1.13379 -8.13867 -2.37891 -10.3359c-11.6465 -7.28906 -25.082 -11.1416 -38.8525 -11.1416h-5.57715v-15
h5.57812c45.8848 0 84.29 35.8525 88.1035 81h-15.0566c-0.916992 -9.18359 -3.53223 -17.9922 -7.81152 -26.252c-1.33496 -2.57422 -3.95312 -4.05176 -6.66504 -4.05176c-1.16211 0 -2.34082 0.270508 -3.44434 0.842773
c-3.67773 1.9043 -5.11426 6.43066 -3.20898 10.1084c3.34375 6.4541 5.38965 13.3369 6.15137 20.5078c-5.65137 2.31543 -9.64648 7.86914 -9.64648 14.3447v129.438c-0.462891 44.0059 -19.4727 85.417 -52.3242 114.394
c-5.45215 -2.51758 -11.3457 -0.458984 -14.418 1.61719c-24.6133 18.3115 -53.1592 27.6523 -84.8447 27.7646c-31.7402 0.106445 -60.4219 -9.27344 -85.3779 -27.8965c-4.84668 -3.62012 -11.7559 -3.24316 -15.0654 -1.33691
c-33.0967 -28.9893 -51.9697 -70.3672 -51.9697 -114.464c0 -0.160156 0 -60.5947 0 -60.5645c0 -4.1416 -3.35742 -7.5 -7.5 -7.5s-7.5 3.3584 -7.5 7.5v53.0459h-43.5c-0.275391 0 -0.5 -0.224609 -0.5 -0.5v-121.5c0 -0.276367 0.224609 -0.5 0.5 -0.5h43
c0.275391 0 0.5 0.223633 0.5 0.5v33.8906c0 4.1416 3.35742 7.5 7.5 7.5s7.5 -3.3584 7.5 -7.5v-33.8906c0 -8.54785 -6.95312 -15.5 -15.5 -15.5h-43c-6.3291 0 -11.7764 3.81738 -14.1807 9.26758c-17.7363 2.96289 -31.3193 18.4414 -31.3193 36.9824v60
c0 18.5586 13.5771 34.0215 31.3184 36.9834c2.4043 5.4502 7.85156 9.26855 14.1816 9.26855h3.71289c1.09375 25.043 6.65527 49.4375 16.5947 72.6123c1.63281 3.80762 6.04199 5.57031 9.84961 3.9375c3.80664 -1.63281 5.56934 -6.04199 3.93652 -9.84961
c-9.13379 -21.2969 -14.2803 -43.7012 -15.3633 -66.7002h24.9502c2.0127 45.5088 22.3242 87.8496 56.6406 118.029l-14.4443 19.5576c-13.832 -12.0088 -25.9014 -25.8613 -35.9326 -41.2676c-1.43848 -2.20801 -3.8418 -3.40918 -6.29199 -3.40918
c-1.40332 0 -2.82227 0.393555 -4.08594 1.2168c-3.4707 2.25977 -4.45215 6.90527 -2.19238 10.377c11.3076 17.3643 25.0205 32.8926 40.8008 46.2305c-0.791016 4.94238 1.00488 10.1465 5.13281 13.541c32.1787 26.4629 79.6621 42.2607 127.018 42.2607
c44.9922 0 93.625 -15.8164 126.92 -41.2783c4.35059 -3.32715 6.30762 -8.57422 5.56348 -13.6172c45.6025 -37.9619 72.4629 -92.6729 74.5469 -151.642h3.64453c6.3291 0 11.7764 -3.81836 14.1807 -9.26855zM15 111.731c0 -9.76074 6.27539 -18.1045 15 -21.2061
v102.414c-8.72754 -3.09863 -15 -11.4385 -15 -21.208v-60zM339 -15.5186v15h-15v-15h15zM309 -23.0186v30c0 1.37793 -1.12109 2.5 -2.5 2.5h-71c-9.64941 0 -17.5 -7.85156 -17.5 -17.5c0 -9.64941 7.85059 -17.5 17.5 -17.5h71c1.37891 0 2.5 1.12109 2.5 2.5z
M256.466 369.196c34.7705 -0.123047 66.1553 -10.3486 93.2949 -30.3955l23.499 32.8086c-30.7988 23.3926 -75.7451 37.9092 -117.436 37.9092c-43.8262 0 -87.5811 -14.4111 -117.155 -38.5723l23.8457 -32.2891c27.1895 20.3115 59.9688 30.751 93.9512 30.5391z
M365.995 335.706c33.9502 -30.1338 54.3115 -72.4111 56.752 -117.724h25.0947c-2.04395 53.5869 -26.1514 103.349 -67.0596 138.369zM467 80.9814v121.5c0 0.275391 -0.224609 0.5 -0.5 0.5h-43.5v-122c0 -0.276367 0.224609 -0.5 0.5 -0.5h43
c0.275391 0 0.5 0.223633 0.5 0.5zM497 111.731v60c0 9.75586 -6.27637 18.1016 -15 21.2041v-102.409c8.72363 3.10254 15 11.4482 15 21.2051z" />
    <glyph glyph-name="007-teacher" unicode="&#xf106;" 
d="M448.772 150.649c4.14258 0 7.5 -3.3584 7.5 -7.5c0 -4.14258 -3.35742 -7.5 -7.5 -7.5h-48c-4.14258 0 -7.5 3.35742 -7.5 7.5c0 4.1416 3.35742 7.5 7.5 7.5h48zM448.772 119.82c4.14258 0 7.5 -3.3584 7.5 -7.5s-3.35742 -7.5 -7.5 -7.5h-48
c-4.14258 0 -7.5 3.3584 -7.5 7.5s3.35742 7.5 7.5 7.5h48zM448.772 181.479c4.14258 0 7.5 -3.3584 7.5 -7.5c0 -4.14258 -3.35742 -7.5 -7.5 -7.5h-48c-4.14258 0 -7.5 3.35742 -7.5 7.5c0 4.1416 3.35742 7.5 7.5 7.5h48zM339.056 191.232h20.5156
c6.68945 0 12.1299 -5.44238 12.1299 -12.1318v-72.9043c0 -6.1377 -4.99219 -11.1309 -11.1299 -11.1309h-82.0205c-6.13672 0 -11.1299 4.99316 -11.1299 11.1309v35.124c0 6.6875 5.44238 12.1299 12.1299 12.1299h17.6465v6.41406
c0 6.6875 5.44141 12.1299 12.1299 12.1299h17.5977v7.10645c0 6.68945 5.44238 12.1318 12.1309 12.1318zM297.197 110.065v28.3848h-14.7764v-28.3848h14.7764zM326.925 110.065v46.9287h-14.7275v-46.9287h14.7275zM356.7 110.065h-0.000976562v66.167h-14.7754
c0 -2.23633 0.0488281 -17.6582 0.0488281 -66.167h14.7275zM18.4453 -28.5684c-10.1709 0 -18.4453 8.27441 -18.4453 18.4443v106.157c0 29.166 19.4336 50.4482 37.4893 57.8789c0.0419922 0.0166016 0.0839844 0.0341797 0.125977 0.0507812
c8.93555 3.49023 75.4961 29.4854 83.9336 32.7812v14.8701c-14.8545 11.0811 -24.0918 27.7295 -26.502 44.9551c-16.8486 1.89941 -28.7832 15.5068 -28.7832 30.7969c0 8.19043 3.5332 16.1445 9.36426 22.0547c-4.0459 4.4873 -6.51465 10.4258 -6.51465 16.9297
v46.4209c0 27.459 22.3398 49.7979 49.7979 49.7979h63.6504c18.4209 0 28.9727 -8.16504 32.2578 -24.96c0.388672 -1.98633 2.37402 -2.88965 4.13867 -2.75293c14.1816 1.08887 27.9287 -10.5586 27.9287 -26.4238v-48.4453
c0 -2.24023 -0.411133 -4.38086 -1.12793 -6.37695c6.57324 -4.77148 11.2002 -12.0625 12.7363 -20.2402h236.42c9.4209 0 17.085 -7.66406 17.085 -17.085v-14.4561c0 -9.4209 -7.66406 -17.0859 -17.085 -17.0859h-0.00488281v-74.0957
c0 -4.14258 -3.35742 -7.5 -7.5 -7.5s-7.5 3.35742 -7.5 7.5v74.0957h-231.896v-175.348c0 -2.3418 1.90527 -4.24707 4.24609 -4.24707h65.5723h157.831c2.34082 0 4.24609 1.90527 4.24609 4.24707v66.252c0 4.1416 3.35742 7.5 7.5 7.5s7.5 -3.3584 7.5 -7.5v-66.252
c0 -10.6133 -8.63379 -19.2471 -19.2461 -19.2471h-104.201v-22.999c9.27734 -3.13672 15.9775 -11.9189 15.9775 -22.2412c0 -12.9463 -10.5322 -23.4785 -23.4775 -23.4785c-12.9463 0 -23.4785 10.5322 -23.4785 23.4785c0 10.3223 6.70117 19.1045 15.9785 22.2412
v22.999h-31.1299v-50.2734c0 -10.1709 -8.27441 -18.4453 -18.4453 -18.4453h-126.722c-4.14258 0 -7.5 3.3584 -7.5 7.5c0 4.14258 3.35742 7.5 7.5 7.5h77.0654v53.7188h-4.97168c-10.6113 0 -19.2461 8.63379 -19.2461 19.2471v99.2607l-28.6152 -28.6172
c-11.084 -11.0791 -26.0674 -17.291 -41.7324 -17.292c-16.25 -0.000976562 -31.0889 6.64844 -41.7305 17.293l-29.0254 29.0244l-48.7676 -19.0459c-11.335 -4.69336 -28.1426 -20.251 -28.1426 -43.9854v-106.156c0 -1.90039 1.5459 -3.44531 3.44531 -3.44531h34.6562
v100.757c0 4.1416 3.35742 7.5 7.5 7.5c4.14355 0 7.5 -3.3584 7.5 -7.5v-100.757h77.0645c4.14355 0 7.5 -3.35742 7.5 -7.5c0 -4.1416 -3.35645 -7.5 -7.5 -7.5h-126.721zM363.963 3.38672c-4.67578 0 -8.47852 -3.80273 -8.47852 -8.47754
c0 -4.67578 3.80273 -8.47852 8.47852 -8.47852c4.6748 0 8.47754 3.80273 8.47754 8.47852c0 4.6748 -3.80273 8.47754 -8.47754 8.47754zM272.23 40.1494h0.00195312v-53.7188h34.6553c1.89941 0 3.44531 1.5459 3.44531 3.44531v50.2734h-38.1025zM143.088 132.347
c12.2783 -6.11719 26.7803 -6.13379 39.0723 -0.0410156l-14.7148 14.8135c-0.652344 0.65625 -1.29688 1.50488 -1.69922 2.16211h-6.28809c-0.382812 -0.620117 -1.00879 -1.46094 -1.66992 -2.13086c-0.00878906 -0.00976562 -0.0166016 -0.0214844 -0.0263672 -0.03125
c-8.97656 -9.03613 -5.72656 -5.76367 -14.6738 -14.7725zM136.538 184.953c4.24512 -4.21484 15.5439 -15.4326 20.8232 -20.6719h10.4854c8.44336 8.38379 12.209 12.1221 20.9082 20.7598c-0.00488281 0.142578 -0.0078125 0.286133 -0.0078125 0.428711
l-0.00683594 7.64062c-17.4297 -7.05859 -36.7188 -6.05664 -52.1904 0.117188v-7.7002c0 -0.193359 -0.00390625 -0.384766 -0.0117188 -0.574219zM194.406 141.261l23.6104 23.6113c-10.3525 4.00879 -9.77441 3.78516 -20.3477 7.87988l-17.3906 -17.2666
c1.6582 -1.66992 12.6875 -12.7754 14.1279 -14.2246zM233.015 175.149v59.5938h-0.00488281c-1.78809 0 -3.51074 0.27832 -5.13184 0.791016c-4.28906 -13.7305 -12.8604 -25.585 -24.1436 -33.998l0.0126953 -15.0527zM494.915 268.372
c-15.2607 0 -246.445 0 -261.905 0.000976562c-1.14844 0 -2.08496 -0.936523 -2.08496 -2.08594v-14.4561c0 -1.15039 0.936523 -2.08594 2.08496 -2.08594h261.905c1.14941 0 2.08496 0.935547 2.08496 2.08594v14.4561c0 1.14844 -0.935547 2.08496 -2.08496 2.08496z
M235.297 292.529c-1.19531 -0.506836 -2.88574 -1.01562 -4.37207 -1.25098v-8.03125c0.458008 0.0556641 1.40527 0.125977 2.08496 0.125977h9.99121c-1.42676 3.87891 -4.1875 7.2041 -7.7041 9.15625zM94.4082 261.87h-0.000976562v29.1709
c-0.410156 0.000976562 -0.821289 0.0107422 -1.23242 0.03125c-1.2334 0.0605469 -2.44336 0.212891 -3.625 0.444336c-4.97461 -3.13867 -8.28613 -8.66211 -8.28613 -14.1494c0 -7.5127 5.67383 -13.7178 13.1445 -15.4971zM94.4238 306.042
c10.4961 0 61.7617 0 72.2402 0.000976562c12.8604 0 24.624 7.05762 30.6982 18.4189c4.19238 7.84863 16.2324 4.89453 16.2324 -4.07812c0 -7.74512 6.35547 -14.3418 14.3428 -14.3418c2.08594 0 3.94824 1.79102 3.94824 3.94824v48.4424
c0 7.02832 -6.22168 11.8916 -11.7773 11.4678c-9.59766 -0.737305 -18.2119 5.63574 -20.0098 14.8301c-1.37402 7.02344 -3.64258 12.8389 -17.5371 12.8389h-63.6504c-19.1875 0 -34.7979 -15.6104 -34.7979 -34.7979v-46.4199
c0 -5.77832 4.75195 -10.3096 10.3105 -10.3096zM109.408 255.59c0 -27.0029 21.4551 -52.3906 54.125 -52.3896c28.5068 0 52.3916 23.1641 52.3916 52.3906v38.0371c-5.75293 2.59277 -10.5312 6.97754 -13.6006 12.4512
c-9.34375 -9.60254 -22.2109 -15.0371 -35.6602 -15.0371h-57.2559v-35.4521zM127.373 172.915l-20.2061 -7.89258l23.6973 -23.6982c9.20801 9.26953 6.45117 6.49512 14.0654 14.1602c-10.4951 10.4199 -6.15723 6.1123 -17.5566 17.4307z" />
    <glyph glyph-name="004-quote-left" unicode="&#xf103;" 
d="M177.229 211.69c16.4082 0 30.3613 -5.74414 41.8447 -17.2275c11.4932 -11.4932 17.2373 -25.4346 17.2373 -41.8496v-118.148c0 -16.4189 -5.74414 -30.3604 -17.2295 -41.8516c-11.4893 -11.4854 -25.4375 -17.2275 -41.8457 -17.2275h-118.158
c-16.4092 0 -30.3613 5.74219 -41.8496 17.2275c-11.4873 11.4912 -17.2285 25.4326 -17.2285 41.8516v216.609c0 21.334 4.1543 41.6934 12.4629 61.0781c8.30762 19.3877 19.5361 36.1553 33.6914 50.3047c14.1553 14.1553 30.9219 25.3877 50.3066 33.6963
c19.3877 8.30371 39.7422 12.4619 61.0771 12.4619h19.6914c5.33301 0 9.94727 -1.95312 13.8447 -5.8457c3.89648 -3.89844 5.8457 -8.51562 5.8457 -13.8486v-39.3877c0 -5.33398 -1.94824 -9.94727 -5.8457 -13.8457c-3.89844 -3.89551 -8.5127 -5.8457 -13.8447 -5.8457
h-19.6914c-21.7422 0 -40.3086 -7.69336 -55.6934 -23.0742c-15.3867 -15.3867 -23.0801 -33.9492 -23.0801 -55.6943v-9.8418c0 -8.20703 2.87402 -15.1816 8.61523 -20.9258c5.74414 -5.74414 12.7197 -8.61523 20.9258 -8.61523h68.9238zM494.779 194.463
c11.4854 -11.4932 17.2207 -25.4336 17.2197 -41.8496v-118.148c0 -16.4189 -5.73438 -30.3604 -17.2275 -41.8516c-11.4834 -11.4854 -25.4316 -17.2275 -41.8438 -17.2275h-118.152c-16.4121 0 -30.3604 5.74219 -41.8457 17.2275
c-11.4844 11.4912 -17.2305 25.4326 -17.2305 41.8516v216.609c0 21.334 4.16016 41.6934 12.4658 61.0781c8.30469 19.3877 19.5391 36.1553 33.6943 50.3047c14.1562 14.1553 30.918 25.3877 50.2988 33.6963c19.3926 8.30371 39.7432 12.4619 61.0908 12.4619h19.6865
c5.33398 0 9.95117 -1.95312 13.8457 -5.8457c3.89551 -3.89844 5.84961 -8.51562 5.84961 -13.8486v-39.3877c0 -5.33398 -1.95605 -9.94727 -5.84961 -13.8457c-3.89551 -3.89551 -8.5127 -5.8457 -13.8457 -5.8457h-19.6865
c-21.7539 0 -40.3184 -7.69336 -55.6982 -23.0742c-15.3789 -15.3867 -23.0732 -33.9492 -23.0732 -55.6943v-9.8418c0 -8.20703 2.86914 -15.1816 8.61523 -20.9258c5.73438 -5.74414 12.7168 -8.61523 20.9189 -8.61523h68.9219
c16.4131 0 30.3613 -5.74414 41.8457 -17.2275z" />
    <glyph glyph-name="003-sculpture" unicode="&#xf102;" 
d="M206.5 348c-5.51953 0 -10 4.48047 -10 10s4.48047 10 10 10s10 -4.48047 10 -10s-4.48047 -10 -10 -10zM206.5 348zM189.961 240.359c-4.55859 3.12109 -5.72266 9.34375 -2.60156 13.8984c10.1094 14.7656 16.8203 31.1992 19.957 48.8516
c0.984375 5.52344 1.39844 11.0586 1.23828 16.4531c-0.164062 5.51953 4.17578 10.1289 9.69531 10.293c5.48438 0.199219 10.1328 -4.17578 10.2969 -9.69531c0.199219 -6.76562 -0.316406 -13.6797 -1.54297 -20.5547
c-3.62891 -20.4609 -11.418 -39.5195 -23.1445 -56.6445c-3.125 -4.56641 -9.35156 -5.71484 -13.8984 -2.60156zM189.961 240.359zM10.5 408c48.8164 0 91.4414 -25.5977 115.453 -63.5898c3.55859 23.1875 1.625 49.9492 -16.8633 77.6836l-6.91016 10.3555
c-2.04688 3.07031 -2.23828 7.01562 -0.496094 10.2695c1.73828 3.25 5.12891 5.28125 8.81641 5.28125h26.2812c49.0039 0 93.4883 -26.6289 116.098 -69.4922c26.918 -51.0312 17.0117 -109.879 -16.0156 -158.145l-8.50391 -12.4258
c0.710938 0.03125 1.42578 0.0625 2.14062 0.0625c20.4062 0 37.9844 -12.293 45.7461 -29.8555l15.6875 28.2695c0.03125 0.046875 0.0625 0.09375 0.0898438 0.140625c0.0273438 0.0429688 0.0429688 0.0898438 0.0703125 0.132812
c7.84766 13.1445 22.2422 21.3125 37.5586 21.3125c16.668 0 31.6602 -9.26562 39.1211 -24.1758v-0.00390625l10.6719 -21.3477c1.55078 -3.10156 1.38281 -6.78516 -0.4375 -9.73047c-1.82422 -2.94922 -5.04297 -4.74219 -8.50781 -4.74219
c-8.16797 0 -15.8086 -3.22656 -21.5039 -9.08203c-5.69531 -5.85156 -8.70312 -13.5742 -8.48047 -21.7539c0.601562 -22.1055 -6.92969 -41.8516 -21.7773 -57.1094c-4.32422 -4.44141 -9.23438 -8.46875 -14.6445 -12.0547h6.40625c5.52344 0 10 -4.47656 10 -10v-40
c0 -5.52344 -4.47656 -10 -10 -10h-10v-62c0 -5.52344 -4.47656 -10 -10 -10h-200c-5.52344 0 -10 4.47656 -10 10v62h-10c-5.52344 0 -10 4.47656 -10 10v40c0 5.52344 4.47656 10 10 10h30.7969c-36.5 23.0469 -60.7969 63.7344 -60.7969 110v80
c0 55.3203 -11.9375 81.5273 -38.9453 135.527c-1.54688 3.10156 -1.38281 6.78125 0.4375 9.73047c1.82422 2.94531 5.04297 4.74219 8.50781 4.74219zM60.5 178c0 -53.7148 38.7031 -98.5508 89.6836 -108.113c-10.3672 6.65234 -19.7266 14.7773 -27.9375 24.332
c-14.5898 16.9727 -25.3203 38.4727 -31.0352 62.1836c-5.45703 22.6328 -6.39844 47.375 -2.72656 71.5586v0.00390625c4.01172 26.4297 19.8555 55.3984 30.1602 87.0273c-15.5586 38.5781 -50.7891 65.832 -91.3906 71.7852
c20.9023 -42.4219 33.2461 -73.0312 33.2461 -128.777v-80zM100.5 8v-52h180v52h-180zM300.5 48h-220v-20h220v20zM230.5 188c-16.4922 0 -30 -13.4414 -30 -30c0 -16.543 13.457 -30 30 -30c12.5078 0 23.8164 7.87109 28.1367 19.5898
c7.21484 19.3594 -7.13281 40.4102 -28.1367 40.4102zM136.781 428h-7.75c26.2891 -43.3789 19.0781 -84.8164 10.4922 -113.297c0.0273438 -2.16406 -0.644531 -4.26562 -1.89062 -5.99219c-10.3711 -31.8047 -25.8555 -60.5508 -29.375 -83.75
c-6.76953 -44.5898 4.12891 -88.5938 29.1562 -117.703c22.0742 -25.6836 54.2656 -39.2578 93.0859 -39.2578c30.8867 0 57.8203 9.47656 73.9023 26.0039c11.1523 11.457 16.5781 25.7969 16.1211 42.6133c-0.375 13.6211 4.64844 26.4922 14.1367 36.2461
c5.88281 6.04297 13 10.4062 20.8047 12.8555l-4.57812 9.15625c-4.05078 8.09375 -12.1875 13.125 -21.2344 13.125c-8.28906 0 -16.0703 -4.40234 -20.3398 -11.4922c-33.4375 -59.9922 -31.707 -57.7773 -33.4766 -59.6016
c-8.10938 -17.4297 -25.8516 -28.9062 -45.3359 -28.9062c-27.5703 0 -50 22.4297 -50 50c0 10.6289 3.29688 20.7617 9.52734 29.3359c1.32422 1.9375 28.9883 42.3594 30.3281 44.3203c31.3555 45.8203 36.7617 95.9453 14.832 137.523
c-19.1367 36.2812 -56.8438 58.8203 -98.4062 58.8203zM136.781 428z" />
    <glyph glyph-name="001-paint-palette" unicode="&#xf100;" 
d="M327.921 212c0 5.52246 4.47754 10 10 10s10 -4.47754 10 -10s-4.47754 -10 -10 -10s-10 4.47754 -10 10zM339.637 169.152c5.46289 -0.80957 9.23633 -5.89453 8.42773 -11.3574c-3.8916 -26.2725 -24.6924 -47.6309 -55.6426 -57.1338
c-10.3877 -3.19043 -21.4541 -4.80469 -32.4121 -4.80469c-7.09375 0 -14.1416 0.676758 -20.9355 2.04102c-19.2402 3.8623 -35.8896 12.9609 -48.1475 26.3096c-3.73438 4.06738 -3.46582 10.3926 0.602539 14.1289c4.06641 3.73438 10.3926 3.46582 14.1289 -0.601562
c21.1748 -23.0596 55.8857 -25.6338 80.8926 -17.9541c23.3965 7.18359 38.9961 22.4893 41.7295 40.9443c0.808594 5.46387 5.89746 9.23828 11.3564 8.42773zM478.626 257.589c21.0918 -24.4512 31.9551 -57.29 31.4141 -94.9678
c-0.37207 -25.9092 -6.37793 -53.2334 -17.3721 -79.0176c-11.5527 -27.0967 -27.9658 -51.6494 -48.7832 -72.9785c-22.4521 -23.0029 -48.9854 -41.0869 -78.8662 -53.752c-32.6768 -13.8506 -68.707 -20.873 -107.087 -20.873
c-71.2891 0 -139.954 30.2715 -188.388 83.0527c-49.3047 53.7314 -72.9531 124.065 -66.5859 198.045c5.29199 61.4297 34.3115 119.361 81.7139 163.123c47.3428 43.708 107.014 67.7793 168.021 67.7793h0.469727c17.2852 -0.0361328 31.4404 -8.02148 37.8906 -21.3584
c6.15332 -12.7246 4.00781 -28.1943 -5.59863 -40.375c-12.8262 -16.2607 -16.6602 -35.0137 -10.8467 -51.4307c7.83789 4.81738 15.8486 9.59668 23.9355 14.2646c46.8164 27.0303 93.0303 48.8271 130.127 61.377c43.9062 14.8545 68.2871 14.9551 76.7334 0.321289
c7.58984 -13.1387 -1.5 -31.291 -28.6094 -57.1221c-17.7803 -16.9414 -42.7158 -36.3574 -71.626 -55.8682c30.1963 -5.48633 55.2822 -19.1484 73.458 -40.2197zM275.776 312.012c-4.47559 -2.81836 -8.89062 -5.66309 -13.2295 -8.50684
c6.13086 -7.11523 11.6162 -14.8047 16.3447 -22.9961c4.87988 -8.45215 8.88867 -17.3105 12.0166 -26.4395c15.6768 7.89844 31.6494 16.5254 47.6348 25.752c11.5947 6.69531 23.0605 13.6299 34.0781 20.6064c34.8506 22.0635 65.666 44.916 86.7676 64.3496
c25.2715 23.2715 28.1611 33.625 28.4795 35.9512c-3.67578 1.76074 -19.4434 2.65039 -57.9531 -10.9844c-34.9834 -12.3867 -78.0869 -32.9717 -121.373 -57.9639c-11.1592 -6.44238 -22.1816 -13.0938 -32.7656 -19.7686zM272.79 245.198
c-2.80859 8.75488 -6.55859 17.2432 -11.2178 25.3125c-4.50488 7.80371 -9.78906 15.0889 -15.749 21.75c-25.6719 -17.7188 -47.4746 -35.0391 -62.9639 -49.9873c3.69238 -3.4043 6.8877 -7.35156 9.43457 -11.7666c2.6875 -4.6582 4.58105 -9.6582 5.6582 -14.8311
c20.6904 5.92188 46.6006 16.1309 74.8379 29.5225zM490.042 162.908c0.792969 55.2676 -28.0576 115.176 -111.407 117.565c-0.0585938 0.00195312 -0.116211 0.0117188 -0.174805 0.0146484c-9.74609 -6.09082 -19.7744 -12.1299 -29.917 -17.9883
c-19.9961 -11.54 -39.9922 -22.1895 -59.4346 -31.6523c-34.7021 -16.9062 -66.7432 -29.5 -91.2666 -35.9365c-2.96191 -13.6797 -11.5137 -25.5801 -23.8516 -32.7021c-11.3906 -6.5791 -35.1982 -8.24707 -56.3965 -8.24707
c-17.4688 0 -33.1641 1.13184 -38.6904 1.58008c-3.27441 0.265625 -6.20898 2.12305 -7.85254 4.96777c-1.6416 2.8457 -1.7832 6.31641 -0.375 9.28418c5.25684 11.0889 32.5371 67.0137 53.3135 79.0146c12.6533 7.30469 27.542 8.6543 41.0918 4.02344
c17.8662 17.9609 44.7178 39.3037 76.5166 60.7607c0.0234375 0.0166016 0.046875 0.0322266 0.0712891 0.0478516c5.09082 3.44141 10.3604 6.91016 15.7207 10.3643c-10.1826 23.6953 -5.66309 51.7979 12.3604 74.6484c4.90039 6.21191 6.13184 13.4199 3.29688 19.2812
c-3.08301 6.37695 -10.3389 10.0459 -19.9062 10.0654h-0.448242c-116.617 0 -219.708 -95.3799 -229.808 -212.618c-5.87988 -68.3311 15.9229 -133.254 61.3965 -182.808c44.6553 -48.6641 107.949 -76.5742 173.65 -76.5742c141.537 0 230.685 107.4 232.11 206.908z
M178.942 203.63c0.37207 5.89551 -1.00098 11.7334 -3.97266 16.8828c-2.85547 4.95117 -7.02734 8.9541 -12.0664 11.5781c-9.16797 4.7832 -19.9746 4.55762 -28.9121 -0.602539c-9.4668 -5.46875 -26.3467 -33.2344 -38.6211 -56.9385
c26.6748 -1.21973 59.1631 -0.483398 68.6201 4.97949c8.72363 5.03613 14.3115 14.0439 14.9521 24.1006zM177.922 386.16c22.0557 0 40 -17.9443 40 -40c0 -22.0566 -17.9443 -40 -40 -40s-40 17.9434 -40 40c0 22.0557 17.9443 40 40 40zM177.922 326.16
c11.0283 0 20 8.97168 20 20s-8.97168 20 -20 20s-20 -8.97168 -20 -20s8.97168 -20 20 -20zM127.922 117.45c22.0557 0 40 -17.9443 40 -40c0 -22.0566 -17.9443 -40 -40 -40s-40 17.9434 -40 40c0 22.0557 17.9443 40 40 40zM127.922 57.4502c11.0283 0 20 8.97168 20 20
c0 11.0273 -8.97168 20 -20 20s-20 -8.97266 -20 -20c0 -11.0283 8.97168 -20 20 -20zM227.922 57.4502c22.0557 0 40 -17.9443 40 -40c0 -22.0566 -17.9443 -40 -40 -40s-40 17.9434 -40 40c0 22.0557 17.9443 40 40 40zM227.922 -2.5498c11.0283 0 20 8.97168 20 20
c0 11.0273 -8.97168 20 -20 20s-20 -8.97266 -20 -20c0 -11.0283 8.97168 -20 20 -20zM347.922 77.4502c22.0557 0 40 -17.9443 40 -40c0 -22.0566 -17.9443 -40 -40 -40s-40 17.9434 -40 40c0 22.0557 17.9443 40 40 40zM347.922 17.4502c11.0283 0 20 8.97168 20 20
c0 11.0273 -8.97168 20 -20 20s-20 -8.97266 -20 -20c0 -11.0283 8.97168 -20 20 -20zM427.922 177.45c22.0557 0 40 -17.9443 40 -40c0 -22.0566 -17.9443 -40 -40 -40s-40 17.9434 -40 40c0 22.0557 17.9443 40 40 40zM427.922 117.45c11.0283 0 20 8.97168 20 20
c0 11.0273 -8.97168 20 -20 20s-20 -8.97266 -20 -20c0 -11.0283 8.97168 -20 20 -20z" />
    <glyph glyph-name="006-location" unicode="&#xf105;" 
d="M341.476 109.715c51.7803 -7.95801 139.524 -31.5977 139.524 -83.7148c0 -59.5283 -116.975 -90 -225 -90c-57.7686 0 -112.296 8.1123 -153.538 22.8408c-59.0635 21.0938 -71.4619 48.1641 -71.4619 67.1592c0 52.1084 87.8467 75.7734 139.522 83.7139
l-48.332 75.8398c-20.4863 28.3555 -31.1904 62.1465 -31.1904 96.4463c0 91.168 74.1582 166 165 166c91.1387 0 165 -74.9805 165 -166c0 -34.3223 -10.4844 -67.251 -30.3203 -95.2285c-1.56934 -2.22949 5.2793 8.43652 -49.2041 -77.0566zM147.249 202.055
l108.751 -170.644c116.448 182.724 108.909 171.012 110.354 172.918c16.125 22.834 24.6465 49.6846 24.6465 77.6709c0 74.9912 -60.5605 136 -135 136c-74.5938 0 -135 -60.9824 -135 -136c0 -27.9414 8.68457 -55.7354 25.7324 -79.1865
c0.179688 -0.248047 0.351562 -0.5 0.516602 -0.758789zM256 -34c118.687 0 195 34.8984 195 60c0 17.0156 -39.5693 44.9951 -127.251 55.9014l-55.1006 -86.4629c-2.75391 -4.32129 -7.52441 -6.93848 -12.6494 -6.93848s-9.89551 2.61621 -12.6494 6.93848
l-55.1016 86.4629c-87.6797 -10.9062 -127.248 -38.8857 -127.248 -55.9014c0 -25.3174 77.0059 -60 195 -60zM256 357c41.3555 0 75 -33.6445 75 -75s-33.6445 -75 -75 -75s-75 33.6445 -75 75s33.6445 75 75 75zM256 237c24.8135 0 45 20.1865 45 45s-20.1865 45 -45 45
s-45 -20.1865 -45 -45s20.1865 -45 45 -45z" />
    <glyph glyph-name="008-online-course" unicode="&#xf107;" 
d="M264.827 218.482c-1.28809 0 -2.56836 0.283203 -3.75977 0.838867l-150.069 70.6211c-3.08984 1.45605 -5.06738 4.57227 -5.06738 7.98828c0 3.41699 1.97754 6.5332 5.06738 7.98926l150.069 70.6211c2.38281 1.12109 5.1377 1.12109 7.52051 0l150.069 -70.6211
c3.08984 -1.45605 5.06738 -4.57227 5.06738 -7.98926c0 -3.41602 -1.97754 -6.53223 -5.06738 -7.98828l-150.069 -70.6211c-1.19141 -0.555664 -2.47168 -0.838867 -3.76074 -0.838867zM135.494 297.931l129.333 -60.8662l129.333 60.8662l-129.333 60.8662z
M264.827 147.862c-1.35059 0 -2.70996 0.308594 -3.94531 0.926758l-105.932 52.9658c-2.99219 1.5 -4.88086 4.55469 -4.88086 7.90039v67.5049c0 3.01855 1.54492 5.83496 4.0957 7.4502c2.55078 1.62402 5.75586 1.80957 8.4834 0.538086l102.179 -48.084l102.171 48.084
c2.73633 1.28027 5.94141 1.08594 8.4834 -0.538086c2.55957 -1.61523 4.10449 -4.43164 4.10449 -7.4502v-67.5049c0 -3.3457 -1.88867 -6.40039 -4.88184 -7.90039l-105.931 -52.9658c-1.23535 -0.618164 -2.5957 -0.926758 -3.94629 -0.926758zM167.725 215.11
l97.1025 -48.5518l97.1035 48.5518v48.1367l-93.3428 -43.9258c-2.38281 -1.12109 -5.1377 -1.12109 -7.52051 0l-93.3428 43.9258v-48.1367zM414.896 289.104h-150.069c-4.87207 0 -8.82715 3.95508 -8.82715 8.82715c0 4.87305 3.95508 8.82812 8.82715 8.82812h150.069
c4.87305 0 8.82812 -3.95508 8.82812 -8.82812c0 -4.87207 -3.95508 -8.82715 -8.82812 -8.82715zM414.896 209.655c-4.87305 0 -8.82715 3.95508 -8.82715 8.82715v79.4482c0 4.87305 3.9541 8.82812 8.82715 8.82812s8.82812 -3.95508 8.82812 -8.82812v-79.4482
c0 -4.87207 -3.95508 -8.82715 -8.82812 -8.82715zM264.827 271.448c-4.87207 0 -8.82715 3.95508 -8.82715 8.82715v35.3105c0 4.87305 3.95508 8.82812 8.82715 8.82812c4.87305 0 8.82812 -3.95508 8.82812 -8.82812v-35.3105
c0 -4.87207 -3.95508 -8.82715 -8.82812 -8.82715zM397.232 183.173c-1.67676 0 -3.38086 0.476562 -4.89062 1.48242c-4.05176 2.70117 -5.14648 8.18359 -2.44531 12.2441l17.6553 26.4824c2.70117 4.06055 8.1748 5.16406 12.2441 2.44531
c4.05176 -2.70117 5.14648 -8.18262 2.44531 -12.2441l-17.6553 -26.4824c-1.7041 -2.55078 -4.50195 -3.92773 -7.35352 -3.92773zM432.561 183.173c-2.85156 0 -5.64941 1.37695 -7.35352 3.92773l-17.6553 26.4824c-2.70117 4.05273 -1.60645 9.54297 2.44531 12.2441
c4.05176 2.71875 9.53418 1.61523 12.2441 -2.44531l17.6553 -26.4824c2.70117 -4.05176 1.60645 -9.54297 -2.44531 -12.2441c-1.50977 -1.00586 -3.21289 -1.48242 -4.89062 -1.48242zM264.827 192c-4.87207 0 -8.82715 3.95508 -8.82715 8.82715v26.4834
c0 4.87305 3.95508 8.82715 8.82715 8.82715c4.87305 0 8.82812 -3.9541 8.82812 -8.82715v-26.4834c0 -4.87207 -3.95508 -8.82715 -8.82812 -8.82715zM520.827 112.552h-512c-4.87207 0 -8.82715 3.95508 -8.82715 8.82715v291.302
c0 19.4736 15.8457 35.3193 35.3193 35.3193h459.017c19.4736 0 35.3193 -15.8457 35.3193 -35.3193v-291.302c0 -4.87207 -3.95508 -8.82715 -8.82812 -8.82715zM17.6553 130.207h494.345v282.474c0 9.74609 -7.91797 17.6641 -17.6641 17.6641h-459.017
c-9.74609 0 -17.6641 -7.91797 -17.6641 -17.6641v-282.474zM494.336 41.9307h-459.017c-19.4736 0 -35.3193 15.8457 -35.3193 35.3193v44.1289c0 4.87305 3.95508 8.82812 8.82715 8.82812h512c4.87305 0 8.82812 -3.95508 8.82812 -8.82812v-44.1289
c0 -19.4736 -15.8457 -35.3193 -35.3193 -35.3193zM17.6553 112.552v-35.3018c0 -9.74512 7.91797 -17.6641 17.6641 -17.6641h459.017c9.74609 0 17.6641 7.91895 17.6641 17.6641v35.3018h-494.345zM291.311 77.2412h-52.9658
c-4.87305 0 -8.82715 3.95508 -8.82715 8.82812c0 4.87207 3.9541 8.82715 8.82715 8.82715h52.9658c4.87305 0 8.82715 -3.95508 8.82715 -8.82715c0 -4.87305 -3.9541 -8.82812 -8.82715 -8.82812zM485.518 112.552h-441.38c-4.87305 0 -8.82715 3.95508 -8.82715 8.82715
v282.483c0 4.87305 3.9541 8.82715 8.82715 8.82715h441.38c4.87207 0 8.82715 -3.9541 8.82715 -8.82715v-282.483c0 -4.87207 -3.95508 -8.82715 -8.82715 -8.82715zM52.9658 130.207h423.724v264.827h-423.724v-264.827zM379.586 -64h-229.517
c-14.6016 0 -26.4834 11.8818 -26.4834 26.4824c0 14.6016 11.8818 26.4834 26.4834 26.4834h229.517c14.6016 0 26.4834 -11.8818 26.4834 -26.4834c0 -14.6006 -11.8818 -26.4824 -26.4834 -26.4824zM150.069 -28.6895c-4.86426 0 -8.82812 -3.96387 -8.82812 -8.82812
c0 -4.86328 3.96387 -8.82715 8.82812 -8.82715h229.517c4.86426 0 8.82812 3.96387 8.82812 8.82715c0 4.86426 -3.96387 8.82812 -8.82812 8.82812h-229.517zM361.931 -28.6895h-194.206c-4.87305 0 -8.82812 3.9541 -8.82812 8.82715s3.95508 8.82812 8.82812 8.82812
c29.2891 0 44.1377 20.7891 44.1377 61.793c0 4.87305 3.9541 8.82715 8.82715 8.82715h88.2764c4.87207 0 8.82715 -3.9541 8.82715 -8.82715c0 -41.0039 14.8477 -61.793 44.1377 -61.793c4.87305 0 8.82812 -3.95508 8.82812 -8.82812
s-3.95508 -8.82715 -8.82812 -8.82715zM210.724 -11.0342h108.217c-10.875 12.04 -17.2754 29.9697 -18.5557 52.9648h-71.1055c-1.28906 -22.9951 -7.68066 -40.9248 -18.5557 -52.9648z" />
    <glyph glyph-name="002-computer-graphic" unicode="&#xf101;" 
d="M476 344c15.4385 -0.0166016 27.9834 -12.5615 28 -28v-280c-0.0166016 -15.4385 -12.5615 -27.9834 -28 -28h-160.18l9.59961 -24h42.5801c4.41602 0 8 -3.58398 8 -8v-24c0 -4.41602 -3.58398 -8 -8 -8h-224c-4.41602 0 -8 3.58398 -8 8v24c0 4.41602 3.58398 8 8 8
h42.5801l9.59961 24h-160.18c-15.4385 0.0166016 -27.9834 12.5615 -28 28v280c0.0166016 15.4385 12.5615 27.9834 28 28h190.91l22.2803 36.1904c1.29102 2.10254 4.3418 3.80957 6.80957 3.80957s5.51855 -1.70703 6.80957 -3.80957l22.2803 -36.1904h190.91zM256 288
c-4.41016 -0.00585938 -7.99414 -3.58984 -8 -8c0 -4.41602 3.58398 -8 8 -8s8 3.58398 8 8s-3.58398 8 -8 8zM248 347.74l-46.8496 -76.1406l27.79 -55.5996h54.1191l27.79 55.5996l-46.8496 76.1406v-45.1201c8.83203 -3.12305 16 -13.2598 16 -22.6279
c0 -13.248 -10.752 -24 -24 -24s-24 10.752 -24 24c0 9.36816 7.16797 19.5049 16 22.6279v45.1201zM216 184h80v16h-80v-16zM280 168h-48v-96h48v96zM24 316v-244h192v96h-8c-4.41602 0 -8 3.58398 -8 8v32c0 4.41602 3.58398 8 8 8h3.05957l-26.2197 52.4199
c-0.462891 0.930664 -0.837891 2.53027 -0.837891 3.56934c0 1.25195 0.532227 3.13379 1.18848 4.20117l31.8799 51.8096h-181.07c-6.61816 -0.00585938 -11.9941 -5.38184 -12 -12zM360 -32h-208v-8h208v8zM203.82 -16h104.359l-9.59961 24h-85.1602zM488 36v20h-464v-20
c0.00585938 -6.61816 5.38184 -11.9941 12 -12h440c6.61816 0.00585938 11.9941 5.38184 12 12zM488 72v244c-0.00585938 6.61816 -5.38184 11.9941 -12 12h-181.07l31.8799 -51.8096c0.65625 -1.06738 1.18848 -2.94922 1.18848 -4.20117
c0 -1.03906 -0.375 -2.63867 -0.837891 -3.56934l-26.2197 -52.4199h3.05957c4.41602 0 8 -3.58398 8 -8v-32c0 -4.41602 -3.58398 -8 -8 -8h-8v-96h192zM104 48c4.41602 0 8 -3.58398 8 -8s-3.58398 -8 -8 -8h-56c-4.41602 0 -8 3.58398 -8 8s3.58398 8 8 8h56zM136 48
c4.41602 0 8 -3.58398 8 -8s-3.58398 -8 -8 -8h-8c-4.41602 0 -8 3.58398 -8 8s3.58398 8 8 8h8zM112 392c-4.41602 0 -8 3.58398 -8 8v32c0 4.41602 3.58398 8 8 8h32c4.41602 0 8 -3.58398 8 -8v-8h80v8c0 4.41602 3.58398 8 8 8h32c4.41602 0 8 -3.58398 8 -8v-8h80v8
c0 4.41602 3.58398 8 8 8h32c4.41602 0 8 -3.58398 8 -8v-32c0 -4.41602 -3.58398 -8 -8 -8h-32c-4.41602 0 -8 3.58398 -8 8v8h-80v-8c0 -4.41602 -3.58398 -8 -8 -8h-32c-4.41602 0 -8 3.58398 -8 8v8h-80v-8c0 -4.41602 -3.58398 -8 -8 -8h-32zM376 424v-16h16v16h-16z
M248 424v-16h16v16h-16zM120 424v-16h16v16h-16z" />
  </font>
</defs></svg>
